info face="Gluten" size=10 bold=0 italic=0 smooth=1 spacing=0,0
common lineHeight=12 base=9 scaleW=110 scaleH=104 pages=1
page id=0 file="gluten_medium_10.PNG"
char id=32 x=1 y=10 width=0 height=0 xoffset=0 yoffset=9 xadvance=4 page=0
char id=33 x=2 y=1 width=3 height=10 xoffset=0 yoffset=0 xadvance=3 page=0
char id=34 x=6 y=1 width=4 height=4 xoffset=0 yoffset=0 xadvance=4 page=0
char id=35 x=11 y=1 width=12 height=10 xoffset=0 yoffset=0 xadvance=12 page=0
char id=36 x=24 y=1 width=7 height=10 xoffset=0 yoffset=0 xadvance=7 page=0
char id=37 x=32 y=1 width=10 height=10 xoffset=0 yoffset=0 xadvance=10 page=0
char id=38 x=43 y=1 width=10 height=10 xoffset=0 yoffset=0 xadvance=10 page=0
char id=39 x=54 y=1 width=2 height=4 xoffset=0 yoffset=0 xadvance=2 page=0
char id=40 x=57 y=1 width=5 height=12 xoffset=0 yoffset=0 xadvance=4 page=0
char id=41 x=63 y=1 width=5 height=12 xoffset=0 yoffset=0 xadvance=4 page=0
char id=42 x=69 y=1 width=7 height=6 xoffset=0 yoffset=0 xadvance=7 page=0
char id=43 x=77 y=2 width=8 height=7 xoffset=0 yoffset=1 xadvance=8 page=0
char id=44 x=86 y=8 width=3 height=4 xoffset=0 yoffset=7 xadvance=3 page=0
char id=45 x=90 y=5 width=8 height=2 xoffset=0 yoffset=4 xadvance=8 page=0
char id=46 x=99 y=8 width=3 height=3 xoffset=0 yoffset=7 xadvance=3 page=0
char id=47 x=1 y=14 width=8 height=9 xoffset=0 yoffset=0 xadvance=8 page=0
char id=48 x=10 y=14 width=7 height=10 xoffset=0 yoffset=0 xadvance=7 page=0
char id=49 x=18 y=14 width=4 height=10 xoffset=0 yoffset=0 xadvance=5 page=0
char id=50 x=23 y=14 width=7 height=10 xoffset=0 yoffset=0 xadvance=7 page=0
char id=51 x=31 y=14 width=8 height=10 xoffset=0 yoffset=0 xadvance=7 page=0
char id=52 x=40 y=14 width=8 height=10 xoffset=0 yoffset=0 xadvance=7 page=0
char id=53 x=49 y=14 width=7 height=10 xoffset=0 yoffset=0 xadvance=7 page=0
char id=54 x=57 y=14 width=7 height=10 xoffset=0 yoffset=0 xadvance=7 page=0
char id=55 x=65 y=14 width=7 height=10 xoffset=0 yoffset=0 xadvance=7 page=0
char id=56 x=73 y=14 width=8 height=10 xoffset=0 yoffset=0 xadvance=8 page=0
char id=57 x=82 y=15 width=7 height=9 xoffset=0 yoffset=1 xadvance=7 page=0
char id=58 x=90 y=17 width=3 height=6 xoffset=0 yoffset=3 xadvance=3 page=0
char id=59 x=94 y=17 width=3 height=8 xoffset=0 yoffset=3 xadvance=3 page=0
char id=60 x=98 y=15 width=5 height=7 xoffset=0 yoffset=1 xadvance=5 page=0
char id=61 x=1 y=28 width=7 height=6 xoffset=0 yoffset=2 xadvance=6 page=0
char id=62 x=9 y=27 width=5 height=7 xoffset=0 yoffset=1 xadvance=5 page=0
char id=63 x=15 y=26 width=7 height=10 xoffset=0 yoffset=0 xadvance=7 page=0
char id=64 x=23 y=26 width=13 height=10 xoffset=0 yoffset=0 xadvance=13 page=0
char id=65 x=37 y=26 width=10 height=10 xoffset=0 yoffset=0 xadvance=10 page=0
char id=66 x=48 y=27 width=9 height=9 xoffset=0 yoffset=1 xadvance=9 page=0
char id=67 x=58 y=27 width=8 height=9 xoffset=0 yoffset=1 xadvance=8 page=0
char id=68 x=67 y=26 width=9 height=10 xoffset=0 yoffset=0 xadvance=9 page=0
char id=69 x=77 y=26 width=8 height=10 xoffset=0 yoffset=0 xadvance=8 page=0
char id=70 x=86 y=26 width=8 height=10 xoffset=0 yoffset=0 xadvance=7 page=0
char id=71 x=95 y=26 width=10 height=10 xoffset=0 yoffset=0 xadvance=10 page=0
char id=72 x=1 y=37 width=9 height=10 xoffset=0 yoffset=0 xadvance=9 page=0
char id=73 x=11 y=38 width=3 height=9 xoffset=0 yoffset=1 xadvance=4 page=0
char id=74 x=15 y=37 width=8 height=10 xoffset=0 yoffset=0 xadvance=8 page=0
char id=75 x=24 y=37 width=9 height=10 xoffset=0 yoffset=0 xadvance=9 page=0
char id=76 x=34 y=37 width=8 height=10 xoffset=0 yoffset=0 xadvance=8 page=0
char id=77 x=43 y=38 width=11 height=9 xoffset=0 yoffset=1 xadvance=11 page=0
char id=78 x=55 y=38 width=10 height=9 xoffset=0 yoffset=1 xadvance=10 page=0
char id=79 x=66 y=38 width=11 height=9 xoffset=0 yoffset=1 xadvance=11 page=0
char id=80 x=78 y=38 width=9 height=9 xoffset=0 yoffset=1 xadvance=8 page=0
char id=81 x=88 y=37 width=11 height=11 xoffset=0 yoffset=0 xadvance=10 page=0
char id=82 x=100 y=37 width=8 height=10 xoffset=0 yoffset=0 xadvance=8 page=0
char id=83 x=1 y=49 width=8 height=10 xoffset=0 yoffset=0 xadvance=8 page=0
char id=84 x=10 y=50 width=9 height=9 xoffset=0 yoffset=1 xadvance=9 page=0
char id=85 x=20 y=50 width=9 height=9 xoffset=0 yoffset=1 xadvance=9 page=0
char id=86 x=30 y=50 width=10 height=9 xoffset=0 yoffset=1 xadvance=10 page=0
char id=87 x=41 y=49 width=12 height=10 xoffset=0 yoffset=0 xadvance=12 page=0
char id=88 x=54 y=49 width=9 height=10 xoffset=0 yoffset=0 xadvance=9 page=0
char id=89 x=64 y=49 width=9 height=10 xoffset=0 yoffset=0 xadvance=9 page=0
char id=90 x=74 y=49 width=8 height=10 xoffset=0 yoffset=0 xadvance=8 page=0
char id=91 x=83 y=49 width=5 height=12 xoffset=0 yoffset=0 xadvance=4 page=0
char id=92 x=89 y=49 width=7 height=9 xoffset=0 yoffset=0 xadvance=7 page=0
char id=93 x=97 y=49 width=5 height=12 xoffset=0 yoffset=0 xadvance=4 page=0
char id=94 x=1 y=62 width=6 height=4 xoffset=0 yoffset=0 xadvance=6 page=0
char id=95 x=8 y=71 width=10 height=2 xoffset=0 yoffset=9 xadvance=9 page=0
char id=96 x=19 y=62 width=4 height=3 xoffset=0 yoffset=0 xadvance=4 page=0
char id=97 x=24 y=64 width=8 height=8 xoffset=0 yoffset=2 xadvance=8 page=0
char id=98 x=33 y=62 width=8 height=10 xoffset=0 yoffset=0 xadvance=8 page=0
char id=99 x=42 y=64 width=8 height=8 xoffset=0 yoffset=2 xadvance=8 page=0
char id=100 x=51 y=62 width=8 height=10 xoffset=0 yoffset=0 xadvance=8 page=0
char id=101 x=60 y=64 width=8 height=8 xoffset=0 yoffset=2 xadvance=8 page=0
char id=102 x=69 y=62 width=7 height=10 xoffset=0 yoffset=0 xadvance=7 page=0
char id=103 x=77 y=64 width=8 height=10 xoffset=0 yoffset=2 xadvance=9 page=0
char id=104 x=86 y=62 width=8 height=10 xoffset=0 yoffset=0 xadvance=8 page=0
char id=105 x=95 y=62 width=4 height=10 xoffset=0 yoffset=0 xadvance=4 page=0
char id=106 x=100 y=62 width=6 height=13 xoffset=-2 yoffset=0 xadvance=5 page=0
char id=107 x=1 y=76 width=8 height=10 xoffset=0 yoffset=0 xadvance=8 page=0
char id=108 x=10 y=76 width=5 height=10 xoffset=0 yoffset=0 xadvance=5 page=0
char id=109 x=16 y=78 width=11 height=8 xoffset=0 yoffset=2 xadvance=11 page=0
char id=110 x=28 y=78 width=9 height=8 xoffset=0 yoffset=2 xadvance=9 page=0
char id=111 x=38 y=78 width=9 height=8 xoffset=0 yoffset=2 xadvance=9 page=0
char id=112 x=48 y=79 width=8 height=10 xoffset=0 yoffset=3 xadvance=8 page=0
char id=113 x=57 y=78 width=9 height=10 xoffset=0 yoffset=2 xadvance=9 page=0
char id=114 x=67 y=78 width=7 height=8 xoffset=0 yoffset=2 xadvance=7 page=0
char id=115 x=75 y=78 width=7 height=8 xoffset=0 yoffset=2 xadvance=7 page=0
char id=116 x=83 y=77 width=7 height=9 xoffset=0 yoffset=1 xadvance=7 page=0
char id=117 x=91 y=78 width=9 height=8 xoffset=0 yoffset=2 xadvance=9 page=0
char id=118 x=1 y=92 width=9 height=8 xoffset=0 yoffset=2 xadvance=9 page=0
char id=119 x=11 y=92 width=11 height=8 xoffset=0 yoffset=2 xadvance=11 page=0
char id=120 x=23 y=92 width=9 height=8 xoffset=0 yoffset=2 xadvance=9 page=0
char id=121 x=33 y=93 width=8 height=9 xoffset=0 yoffset=3 xadvance=8 page=0
char id=122 x=42 y=92 width=7 height=8 xoffset=0 yoffset=2 xadvance=7 page=0
char id=123 x=50 y=90 width=5 height=12 xoffset=0 yoffset=0 xadvance=4 page=0
char id=124 x=56 y=90 width=2 height=12 xoffset=0 yoffset=0 xadvance=3 page=0
char id=125 x=59 y=90 width=4 height=12 xoffset=0 yoffset=0 xadvance=4 page=0
char id=126 x=64 y=91 width=5 height=2 xoffset=1 yoffset=1 xadvance=7 page=0
