info face="Montserrat" size=10 bold=0 italic=0 smooth=1 spacing=0,0
common lineHeight=16 base=13 scaleW=127 scaleH=122 pages=1
page id=0 file="montserrat_black_10.PNG"
char id=32 x=1 y=14 width=0 height=0 xoffset=0 yoffset=13 xadvance=4 page=0
char id=33 x=2 y=4 width=4 height=10 xoffset=0 yoffset=3 xadvance=4 page=0
char id=34 x=7 y=4 width=7 height=4 xoffset=0 yoffset=3 xadvance=7 page=0
char id=35 x=15 y=4 width=10 height=10 xoffset=0 yoffset=3 xadvance=10 page=0
char id=36 x=26 y=2 width=9 height=14 xoffset=0 yoffset=1 xadvance=9 page=0
char id=37 x=36 y=4 width=13 height=10 xoffset=0 yoffset=3 xadvance=12 page=0
char id=38 x=50 y=4 width=10 height=10 xoffset=0 yoffset=3 xadvance=10 page=0
char id=39 x=61 y=4 width=3 height=4 xoffset=0 yoffset=3 xadvance=3 page=0
char id=40 x=65 y=4 width=6 height=13 xoffset=0 yoffset=3 xadvance=5 page=0
char id=41 x=72 y=4 width=6 height=13 xoffset=-1 yoffset=3 xadvance=5 page=0
char id=42 x=79 y=3 width=7 height=6 xoffset=0 yoffset=2 xadvance=6 page=0
char id=43 x=87 y=5 width=8 height=7 xoffset=0 yoffset=4 xadvance=8 page=0
char id=44 x=96 y=10 width=4 height=6 xoffset=0 yoffset=9 xadvance=4 page=0
char id=45 x=101 y=8 width=5 height=3 xoffset=0 yoffset=7 xadvance=5 page=0
char id=46 x=107 y=10 width=4 height=4 xoffset=0 yoffset=9 xadvance=4 page=0
char id=47 x=112 y=1 width=8 height=14 xoffset=-1 yoffset=0 xadvance=6 page=0
char id=48 x=1 y=18 width=9 height=10 xoffset=0 yoffset=3 xadvance=9 page=0
char id=49 x=11 y=18 width=5 height=10 xoffset=0 yoffset=3 xadvance=6 page=0
char id=50 x=17 y=18 width=9 height=10 xoffset=-1 yoffset=3 xadvance=8 page=0
char id=51 x=27 y=18 width=9 height=10 xoffset=-1 yoffset=3 xadvance=8 page=0
char id=52 x=37 y=18 width=10 height=10 xoffset=0 yoffset=3 xadvance=9 page=0
char id=53 x=48 y=18 width=9 height=10 xoffset=0 yoffset=3 xadvance=8 page=0
char id=54 x=58 y=18 width=9 height=10 xoffset=0 yoffset=3 xadvance=9 page=0
char id=55 x=68 y=18 width=9 height=10 xoffset=0 yoffset=3 xadvance=9 page=0
char id=56 x=78 y=18 width=9 height=10 xoffset=0 yoffset=3 xadvance=9 page=0
char id=57 x=88 y=18 width=9 height=10 xoffset=0 yoffset=3 xadvance=9 page=0
char id=58 x=98 y=20 width=4 height=8 xoffset=0 yoffset=5 xadvance=4 page=0
char id=59 x=103 y=20 width=4 height=10 xoffset=0 yoffset=5 xadvance=4 page=0
char id=60 x=108 y=19 width=8 height=8 xoffset=0 yoffset=4 xadvance=8 page=0
char id=61 x=117 y=20 width=8 height=7 xoffset=0 yoffset=5 xadvance=8 page=0
char id=62 x=1 y=32 width=8 height=8 xoffset=0 yoffset=4 xadvance=8 page=0
char id=63 x=10 y=31 width=9 height=10 xoffset=-1 yoffset=3 xadvance=8 page=0
char id=64 x=20 y=31 width=14 height=13 xoffset=0 yoffset=3 xadvance=14 page=0
char id=65 x=35 y=31 width=12 height=10 xoffset=-1 yoffset=3 xadvance=11 page=0
char id=66 x=48 y=31 width=10 height=10 xoffset=0 yoffset=3 xadvance=10 page=0
char id=67 x=59 y=31 width=10 height=10 xoffset=0 yoffset=3 xadvance=10 page=0
char id=68 x=70 y=31 width=11 height=10 xoffset=0 yoffset=3 xadvance=11 page=0
char id=69 x=82 y=31 width=9 height=10 xoffset=0 yoffset=3 xadvance=9 page=0
char id=70 x=92 y=31 width=9 height=10 xoffset=0 yoffset=3 xadvance=9 page=0
char id=71 x=102 y=31 width=10 height=10 xoffset=0 yoffset=3 xadvance=10 page=0
char id=72 x=113 y=31 width=10 height=10 xoffset=0 yoffset=3 xadvance=11 page=0
char id=73 x=1 y=45 width=4 height=10 xoffset=0 yoffset=3 xadvance=5 page=0
char id=74 x=6 y=45 width=8 height=10 xoffset=-1 yoffset=3 xadvance=8 page=0
char id=75 x=15 y=45 width=11 height=10 xoffset=0 yoffset=3 xadvance=10 page=0
char id=76 x=27 y=45 width=9 height=10 xoffset=0 yoffset=3 xadvance=8 page=0
char id=77 x=37 y=45 width=12 height=10 xoffset=0 yoffset=3 xadvance=13 page=0
char id=78 x=50 y=45 width=10 height=10 xoffset=0 yoffset=3 xadvance=11 page=0
char id=79 x=61 y=45 width=11 height=10 xoffset=0 yoffset=3 xadvance=11 page=0
char id=80 x=73 y=45 width=10 height=10 xoffset=0 yoffset=3 xadvance=10 page=0
char id=81 x=84 y=45 width=12 height=13 xoffset=0 yoffset=3 xadvance=11 page=0
char id=82 x=97 y=45 width=10 height=10 xoffset=0 yoffset=3 xadvance=10 page=0
char id=83 x=108 y=45 width=9 height=10 xoffset=0 yoffset=3 xadvance=9 page=0
char id=84 x=1 y=62 width=9 height=10 xoffset=0 yoffset=3 xadvance=9 page=0
char id=85 x=11 y=62 width=10 height=10 xoffset=0 yoffset=3 xadvance=10 page=0
char id=86 x=22 y=62 width=12 height=10 xoffset=-1 yoffset=3 xadvance=10 page=0
char id=87 x=35 y=62 width=16 height=10 xoffset=0 yoffset=3 xadvance=16 page=0
char id=88 x=52 y=62 width=12 height=10 xoffset=-1 yoffset=3 xadvance=10 page=0
char id=89 x=65 y=62 width=11 height=10 xoffset=-1 yoffset=3 xadvance=9 page=0
char id=90 x=77 y=62 width=9 height=10 xoffset=0 yoffset=3 xadvance=9 page=0
char id=91 x=87 y=61 width=6 height=14 xoffset=0 yoffset=2 xadvance=5 page=0
char id=92 x=94 y=59 width=8 height=14 xoffset=-1 yoffset=0 xadvance=6 page=0
char id=93 x=103 y=61 width=5 height=14 xoffset=0 yoffset=2 xadvance=5 page=0
char id=94 x=109 y=64 width=8 height=6 xoffset=0 yoffset=5 xadvance=8 page=0
char id=95 x=118 y=72 width=7 height=2 xoffset=0 yoffset=13 xadvance=7 page=0
char id=96 x=1 y=76 width=6 height=3 xoffset=0 yoffset=1 xadvance=8 page=0
char id=97 x=8 y=80 width=8 height=8 xoffset=0 yoffset=5 xadvance=9 page=0
char id=98 x=17 y=77 width=10 height=11 xoffset=0 yoffset=2 xadvance=9 page=0
char id=99 x=28 y=80 width=9 height=8 xoffset=0 yoffset=5 xadvance=8 page=0
char id=100 x=38 y=77 width=9 height=11 xoffset=0 yoffset=2 xadvance=9 page=0
char id=101 x=48 y=80 width=9 height=8 xoffset=0 yoffset=5 xadvance=9 page=0
char id=102 x=58 y=77 width=7 height=11 xoffset=0 yoffset=2 xadvance=6 page=0
char id=103 x=66 y=80 width=9 height=11 xoffset=0 yoffset=5 xadvance=9 page=0
char id=104 x=76 y=77 width=9 height=11 xoffset=0 yoffset=2 xadvance=9 page=0
char id=105 x=86 y=77 width=4 height=11 xoffset=0 yoffset=2 xadvance=4 page=0
char id=106 x=91 y=77 width=7 height=14 xoffset=-2 yoffset=2 xadvance=4 page=0
char id=107 x=99 y=77 width=10 height=11 xoffset=0 yoffset=2 xadvance=10 page=0
char id=108 x=110 y=77 width=4 height=11 xoffset=0 yoffset=2 xadvance=4 page=0
char id=109 x=1 y=94 width=14 height=8 xoffset=0 yoffset=5 xadvance=14 page=0
char id=110 x=16 y=94 width=9 height=8 xoffset=0 yoffset=5 xadvance=9 page=0
char id=111 x=26 y=94 width=9 height=8 xoffset=0 yoffset=5 xadvance=9 page=0
char id=112 x=36 y=94 width=10 height=11 xoffset=0 yoffset=5 xadvance=9 page=0
char id=113 x=47 y=94 width=9 height=11 xoffset=0 yoffset=5 xadvance=9 page=0
char id=114 x=57 y=94 width=6 height=8 xoffset=0 yoffset=5 xadvance=6 page=0
char id=115 x=64 y=94 width=8 height=8 xoffset=0 yoffset=5 xadvance=8 page=0
char id=116 x=73 y=92 width=7 height=10 xoffset=0 yoffset=3 xadvance=6 page=0
char id=117 x=81 y=94 width=9 height=8 xoffset=0 yoffset=5 xadvance=9 page=0
char id=118 x=91 y=94 width=10 height=8 xoffset=-1 yoffset=5 xadvance=9 page=0
char id=119 x=102 y=94 width=15 height=8 xoffset=-1 yoffset=5 xadvance=13 page=0
char id=120 x=1 y=109 width=10 height=8 xoffset=-1 yoffset=5 xadvance=9 page=0
char id=121 x=12 y=109 width=10 height=11 xoffset=-1 yoffset=5 xadvance=9 page=0
char id=122 x=23 y=109 width=8 height=8 xoffset=0 yoffset=5 xadvance=8 page=0
char id=123 x=32 y=106 width=6 height=14 xoffset=0 yoffset=2 xadvance=6 page=0
char id=124 x=39 y=107 width=4 height=13 xoffset=0 yoffset=3 xadvance=4 page=0
char id=125 x=44 y=106 width=6 height=14 xoffset=0 yoffset=2 xadvance=6 page=0
char id=126 x=51 y=109 width=8 height=4 xoffset=0 yoffset=5 xadvance=8 page=0
